Project 1: Wrangling, Exploration, Visualization
…
## # A tibble: 5 x 1
##   `quantile(avg_temp, probs = seq(0, 1, 0.25))`
##                                           <dbl>
## 1                                          12.5
## 2                                          41  
## 3                                          58.1
## 4                                          72.4
## 5                                          97.2

*The temperature statistic showed a max temperature of 97.2 with a minimum temperature of 12.5

# Categorical variables
Final_data %>% group_by(Year) %>% summarize(count = n())

## # A tibble: 21 x 2
##     Year count
##    <dbl> <int>
##  1  2000     4
##  2  2001     5
##  3  2002     5
##  4  2003     7
##  5  2004     6
##  6  2005     7
##  7  2006     6
##  8  2007    13
##  9  2008    16
## 10  2009     7
## #  with 11 more rows
…
Final_data %>% group_by(Location) %>% summarize(count = n())

## # A tibble: 33 x 2
##    Location   count
##    <chr>      <int>
##  1 Arizona        3
##  2 Arkansas      20
##  3 California     9
##  4 Colorado      16
##  5 Delaware       1
##  6 Florida        7
##  7 Georgia        4
##  8 Illinois      27
##  9 Kansas         2
## 10 Kentucky       1
## #  with 23 more rows
…
Wildfire
70.16667
53.1
95.0
15.03259
6

The depicting graph shows that wildfire have the highest average temperature while Extreme temperature have the highest standard deviation which can be explain by the drastic difference in cold and hot weather. Storm have occurred the most amount of times in the datasets, and drought usually occurs at higher temperature than both flood and storms.

# Data analysis by location and deaths
Final_data %>% select(Location, Disaster_Type, Deaths) %>% group_by(Location, 
    Disaster_Type) %>% summarize(death_sum = sum(Deaths)) %>% 
    arrange(desc(death_sum))

## # A tibble: 58 x 3
## # Groups:   Location [33]
##    Location       Disaster_Type death_sum
##    <chr>          <chr>             <dbl>
##  1 Texas          Storm               228
##  2 New York       Storm               192
##  3 Illinois       Storm               186
##  4 Louisiana      Storm               155
##  5 Florida        Storm               144
##  6 Colorado       Storm               134
##  7 Arkansas       Storm               130
##  8 Oklahoma       Storm               127
##  9 North Carolina Storm               101
## 10 Tennessee      Storm                99
## #  with 48 more rows

The Texas storm had the most death in the dataset, and it appears that the top 10 total deaths are all due to storm disasters

# Analyzing the data by dividing temperature
Final_data %>% mutate(temp_sel = ifelse(avg_temp < 40, "Low", 
    ifelse(avg_temp < 70, "Medium", "High"))) %>% group_by(temp_sel) %>% 
    filter(temp_sel == "High") %>% select(Location, Disaster_Type) %>% 
    count(Location, Disaster_Type) %>% arrange(desc(n))

## # A tibble: 21 x 4
## # Groups:   temp_sel [1]
##    temp_sel Location       Disaster_Type     n
##    <chr>    <chr>          <chr>         <int>
##  1 High     Texas          Storm            10
##  2 High     Florida        Storm             7
##  3 High     Louisiana      Storm             5
##  4 High     Colorado       Storm             4
##  5 High     Illinois       Storm             4
##  6 High     Illinois       Drought           3
##  7 High     Illinois       Flood             3
##  8 High     North Carolina Storm             3
##  9 High     Texas          Flood             3
## 10 High     Arizona        Wildfire          2
## #  with 11 more rows
…
